%YAML 1.1
%TAG !u! tag:unity3d.com,2011:
--- !u!114 &11400000
MonoBehaviour:
  m_ObjectHideFlags: 0
  m_CorrespondingSourceObject: {fileID: 0}
  m_PrefabInstance: {fileID: 0}
  m_PrefabAsset: {fileID: 0}
  m_GameObject: {fileID: 0}
  m_Enabled: 1
  m_EditorHideFlags: 0
  m_Script: {fileID: 11500000, guid: 196ad02ad2401f04a90f4405fe45772f, type: 3}
  m_Name: Dinos_ZoomPresetSettings
  m_EditorClassIdentifier: 
  presets:
  - minZoom: 0.2
    maxZoom: 8
    reducePinchFactor: 1000
    currentZoom: 0.2
  - minZoom: 0.2
    maxZoom: 8
    reducePinchFactor: 1000
    currentZoom: 0.4
  - minZoom: 0.2
    maxZoom: 8
    reducePinchFactor: 1000
    currentZoom: 0.6
